{
  "A lightweight and full featured web browser using GTK+2 and WebKit. Surf the web with speed and simplicity.": "A lightweight and full featured web browser using GTK+2 and WebKit. Surf the web with speed and simplicity.",
  "ASunder": "ASunder",
  "ASunder is a graphical Audio CD ripper and encoder. You can use it to save tracks from an Audio CD as any of WAV, MP3, OGG, FLAC, Opus, WavPack, Musepack, AAC, and Monkey's Audio files.": "ASunder is a graphical Audio CD ripper and encoder. You can use it to save tracks from an Audio CD as any of WAV, MP3, OGG, FLAC, Opus, WavPack, Musepack, AAC, and Monkey's Audio files.",
  "AbiWord": "AbiWord",
  "Are you a downloader? Use Transmission to get new versions of Fedora LXDE Desktop!": "Are you a downloader? Use Transmission to get new versions of Fedora LXDE Desktop!",
  "Download Now": "Download Now",
  "Fedora LXDE Desktop ships a terminal, the gateway to the real power of any UNIX/linux machine, called LXTerminal.": "Fedora LXDE Desktop ships a terminal, the gateway to the real power of any UNIX/linux machine, called LXTerminal.",
  "Fedora LXDE Image": "Fedora LXDE Image",
  "Fedora LXDE Spin": "Fedora LXDE Spin",
  "GPicView": "GPicView",
  "GPicView is the standard picture viewer of LXDE. GPicView features lightning fast startup and an intuitive interface.": "GPicView is the standard picture viewer of LXDE. GPicView features lightning fast startup and an intuitive interface.",
  "Going Online": "Going Online",
  "LXDE, the \"Lightweight X11 Desktop Environment\", is an extremely fast, performant, and energy-saving desktop environment. It maintained by an international community of developers and comes with a beautiful interface, multi-language support, standard keyboard shortcuts and additional features like tabbed file browsing.\n\nLXDE is not designed to be powerful and bloated, but to be usable and slim. A main goal of LXDE is to keep computer resource usage low. It is especially designed for computers with low hardware specifications like netbooks, mobile devices (e.g. MIDs) or older computers.": "LXDE, the \"Lightweight X11 Desktop Environment\", is an extremely fast, performant, and energy-saving desktop environment. It maintained by an international community of developers and comes with a beautiful interface, multi-language support, standard keyboard shortcuts and additional features like tabbed file browsing.\n\nLXDE is not designed to be powerful and bloated, but to be usable and slim. A main goal of LXDE is to keep computer resource usage low. It is especially designed for computers with low hardware specifications like netbooks, mobile devices (e.g. MIDs) or older computers.",
  "LXMusic": "LXMusic",
  "LXMusic is the minimalist music player for LXDE. This is based on XMMS2, which is lightweight and has server/client design.": "LXMusic is the minimalist music player for LXDE. This is based on XMMS2, which is lightweight and has server/client design.",
  "LXTerminal": "LXTerminal",
  "Midori": "Midori",
  "Multimedia": "Multimedia",
  "ObConf": "ObConf",
  "ObConf easily installs new themes which use the .obt Openbox theme archive format for distribution.": "ObConf easily installs new themes which use the .obt Openbox theme archive format for distribution.",
  "Office & Productivity Suite": "Office & Productivity Suite",
  "Osmo": "Osmo",
  "Osmo is a handy personal organizer, which includes calendar, tasks manager, address book and notes modules.": "Osmo is a handy personal organizer, which includes calendar, tasks manager, address book and notes modules.",
  "Pidgin": "Pidgin",
  "Quick and full featured word processing made easy.": "Quick and full featured word processing made easy.",
  "Screenshot of Fedora LXDE desktop": "Screenshot of Fedora LXDE desktop",
  "Sylpheed": "Sylpheed",
  "Sylpheed is a simple, lightweight but featureful, and easy-to-use e-mail client.": "Sylpheed is a simple, lightweight but featureful, and easy-to-use e-mail client.",
  "Transmission": "Transmission",
  "Universal messaging client. Communicate with the world via IRC, AIM, MSN, Yahoo and other instant messaging systems.": "Universal messaging client. Communicate with the world via IRC, AIM, MSN, Yahoo and other instant messaging systems.",
  "Utilities & Configuration": "Utilities & Configuration",
  "We're so glad you've decided to give Fedora LXDE Spin a try. We know you'll love it.": "We're so glad you've decided to give Fedora LXDE Spin a try. We know you'll love it."
}