{
  "Download Now": "Download Now",
  "Fedora Sway Image": "Fedora Sway Image",
  "Screenshot of Fedora Phosh on mobile": "Screenshot of Fedora Phosh on mobile",
  "The Phosh spin provides a mobile friendly, touch based desktop interface. It's built for mobile devices like phones and tablets, but also laptops with touchscreens. \n\n\nPhosh allows you to use a touch based device to quickly launch and switch applications as well as handy settings like battery level and wan signal strength. \n\n\nBehind this desktop is the entire Fedora collection of packages which you can install and use as you see fit. Phosh is built on wayland and other modern GNOME desktop technologies.": "The Phosh spin provides a mobile friendly, touch based desktop interface. It's built for mobile devices like phones and tablets, but also laptops with touchscreens. \n\n\nPhosh allows you to use a touch based device to quickly launch and switch applications as well as handy settings like battery level and wan signal strength. \n\n\nBehind this desktop is the entire Fedora collection of packages which you can install and use as you see fit. Phosh is built on wayland and other modern GNOME desktop technologies.",
  "We're so glad you've decided to give Fedora Phosh a try. We know you'll love it.": "We're so glad you've decided to give Fedora Phosh a try. We know you'll love it."
}
